Accidentalidad vehicular de Medellín por comunas con Modelos Mixtos
…
-1.2203906

16

Villa Hermosa

-0.5422732

Y con \(\widehat{\sigma^2_{b0}} = 0.5765\)

Modelo Ajustado

A continuación se muestra el modelo ajustado sobre los datos reales para cada una de las 16 comunas de área metropolitana:

## # A tibble: 1,152 x 13
## # Groups:   COMUNA, PERIODO, MES, FECHA [1,152]
##    COMUNA PERIODO MES   FECHA     t nro.accidentes Atropello Caida.Ocupante
##    <fct>  <fct>   <fct> <yea> <dbl>          <int>     <int>          <int>
##  1 Aranj~ 2014    Janu~ Jan ~  15              189        33             17
##  2 Aranj~ 2014    Febr~ Feb ~  44.5            204        33             18
##  3 Aranj~ 2014    March Mar ~  74              245        39             23
##  4 Aranj~ 2014    April Apr ~ 104.             223        39             27
##  5 Aranj~ 2014    May   May ~ 135              231        29             25
##  6 Aranj~ 2014    June  Jun ~ 166.             196        39             25
##  7 Aranj~ 2014    July  Jul ~ 196              223        36             21
##  8 Aranj~ 2014    Augu~ Aug ~ 227              215        33             21
##  9 Aranj~ 2014    Sept~ Sep ~ 258.             210        37             20
## 10 Aranj~ 2014    Octo~ Oct ~ 288              211        29             21
## # ... with 1,142 more rows, and 9 more variables: Choque <int>,
## #   Volcamiento <int>, Otro <int>, Accidentalidad[,"Atropello"] <int>,
## #   [,"Caida.Ocupante"] <int>, [,"Choque"] <int>, [,"Volcamiento"] <int>,
## #   [,"Otro"] <int>, fit <dbl>
…
